19fb8b7540d11bf7d6cfa338d1f49014100a296a6db19873
ae22bf5049e290a94380c52f6c9f36ea100a296a6db19873
6ad60a19b8b7fd385aa2368511470dae100a296a6db19873
65ee5985d181017377c7e933e2ca45e1100a296a6db19873
88db9e373319e84342d3ac11084e00b1100a296a6db19873
deb8acb402318f608efd32d5e5216b0a100a296a6db19873
4a0c487669da5e843049fdf7fca425c4100a296a6db19873
ae22bf5049e290a94380c52f6c9f36ea100a296a6db19873
1769708ffee96a1a270acc642f4da300100a296a6db19873
43c93ac0e285fa7ffa2f6a5b299402eb100a296a6db19873
9e3d1209bbded6e26bb16ec50f358c38100a296a6db19873
4bbb53873ee44b20dde1a11eedc9fa1c100a296a6db19873
79b089bc9eefd8b4012a5b8af5d91628100a296a6db19873
12ddd08164d604e64a5a6c8859a82854100a296a6db19873
07b667f57473097a16ecf0ddb38ddc09100a296a6db19873
0ba6fdef2a7a78b517cd3580f6eb8279100a296a6db19873
abad87697c21d93c00bcdc0e209134e9100a296a6db19873
f2dd6793806ed7589c803c646002ca5f100a296a6db19873
0ba6fdef2a7a78b517cd3580f6eb8279100a296a6db19873
90a98f07da0abc4f941fcfe70cd8311f100a296a6db19873